Version 4
SHEET 1 880 680
WIRE 384 0 384 -32
WIRE 464 0 384 0
WIRE 688 0 656 0
WIRE 464 96 384 96
WIRE 736 96 736 48
WIRE 736 96 656 96
WIRE 384 112 384 96
WIRE 384 224 384 192
WIRE 176 272 112 272
WIRE 320 272 256 272
WIRE 384 400 384 320
WIRE 688 400 688 0
FLAG 384 400 0
FLAG 112 272 SIG
IOPIN 112 272 In
FLAG 384 -32 12V
IOPIN 384 -32 In
FLAG 688 400 0
FLAG 736 -32 12V
IOPIN 736 -32 In
SYMBOL res 272 256 R90
WINDOW 0 0 56 VBottom 2
WINDOW 3 32 56 VTop 2
SYMATTR InstName R1
SYMATTR Value 4.1k
SYMBOL res 368 96 R0
SYMATTR InstName R2
SYMATTR Value 300
SYMBOL npn 320 224 R0
SYMATTR InstName Q1
SYMBOL Optos\\PC817A 560 48 R0
SYMATTR InstName U1
SYMBOL res 720 -48 R0
SYMATTR InstName R3
